lab8part3/simulation/qsim/lab8part3.msim.vcd
$comment
	File created using the following command:
		vcd file lab8part3.msim.vcd -direction
$end
$date
	Thu Nov 07 01:07:29 2019
$end
$version
	ModelSim Version 10.5b
$end
$timescale
	1ps
$end

$scope module lab8part3_vhd_vec_tst $end
$var wire 1 ! CLK $end
$var wire 1 " D $end
$var wire 1 # Q $end

$scope module i1 $end
$var wire 1 $ gnd $end
$var wire 1 % vcc $end
$var wire 1 & unknown $end
$var wire 1 ' devoe $end
$var wire 1 ( devclrn $end
$var wire 1 ) devpor $end
$var wire 1 * ww_devoe $end
$var wire 1 + ww_devclrn $end
$var wire 1 , ww_devpor $end
$var wire 1 - ww_CLK $end
$var wire 1 . ww_D $end
$var wire 1 / ww_Q $end
$var wire 1 0 \~QUARTUS_CREATED_ADC1~_CHSEL_bus\ [4] $end
$var wire 1 1 \~QUARTUS_CREATED_ADC1~_CHSEL_bus\ [3] $end
$var wire 1 2 \~QUARTUS_CREATED_ADC1~_CHSEL_bus\ [2] $end
$var wire 1 3 \~QUARTUS_CREATED_ADC1~_CHSEL_bus\ [1] $end
$var wire 1 4 \~QUARTUS_CREATED_ADC1~_CHSEL_bus\ [0] $end
$var wire 1 5 \~QUARTUS_CREATED_ADC2~_CHSEL_bus\ [4] $end
$var wire 1 6 \~QUARTUS_CREATED_ADC2~_CHSEL_bus\ [3] $end
$var wire 1 7 \~QUARTUS_CREATED_ADC2~_CHSEL_bus\ [2] $end
$var wire 1 8 \~QUARTUS_CREATED_ADC2~_CHSEL_bus\ [1] $end
$var wire 1 9 \~QUARTUS_CREATED_ADC2~_CHSEL_bus\ [0] $end
$var wire 1 : \~QUARTUS_CREATED_GND~I_combout\ $end
$var wire 1 ; \~QUARTUS_CREATED_UNVM~~busy\ $end
$var wire 1 < \~QUARTUS_CREATED_ADC1~~eoc\ $end
$var wire 1 = \~QUARTUS_CREATED_ADC2~~eoc\ $end
$var wire 1 > \Q~output_o\ $end
$var wire 1 ? \CLK~input_o\ $end
$var wire 1 @ \D~input_o\ $end
$var wire 1 A \S_G~combout\ $end
$var wire 1 B \R_G~combout\ $end
$var wire 1 C \QB~combout\ $end
$var wire 1 D \QM~combout\ $end
$var wire 1 E \S_G1~combout\ $end
$var wire 1 F \R_G1~combout\ $end
$var wire 1 G \QB2~combout\ $end
$var wire 1 H \QS~combout\ $end
$upscope $end
$upscope $end
$enddefinitions $end
#0
$dumpvars
0!
0"
x#
0$
1%
x&
1'
1(
1)
1*
1+
1,
0-
0.
x/
0:
z;
z<
z=
x>
0?
0@
1A
0B
1C
0D
1E
1F
xG
xH
00
01
02
03
04
05
06
07
08
09
$end
#40000
1!
1-
1?
1B
0F
1G
0H
0>
0/
0#
#60000
1"
1.
1@
#80000
0!
0-
0?
0A
1F
1D
0C
#110000
0"
0.
0@
1A
0B
1C
0D
#120000
1!
1-
1?
1B
0F
#160000
0!
0-
0?
0B
1F
#200000
1!
1-
1?
1B
0F
#240000
0!
0-
0?
0B
1F
#260000
1"
1.
1@
0A
1B
1D
0C
#280000
1!
1-
1?
1A
0E
1H
1>
0G
1/
1#
#320000
0!
0-
0?
0A
1E
#360000
1!
1-
1?
1A
0E
#400000
0!
0-
0?
0A
1E
#420000
0"
0.
0@
1A
0B
1C
0D
#440000
1!
1-
1?
1B
0F
1G
0H
0>
0/
0#
#480000
0!
0-
0?
0B
1F
#520000
1!
1-
1?
1B
0F
#560000
0!
0-
0?
0B
1F
#600000
1!
1-
1?
1B
0F
#640000
0!
0-
0?
0B
1F
#680000
1!
1-
1?
1B
0F
#720000
0!
0-
0?
0B
1F
#760000
1!
1-
1?
1B
0F
#800000
0!
0-
0?
0B
1F
#840000
1!
1-
1?
1B
0F
#880000
0!
0-
0?
0B
1F
#920000
1!
1-
1?
1B
0F
#960000
0!
0-
0?
0B
1F
