lab8part4/simulation/qsim/lab8part4.msim.vcd
$comment
	File created using the following command:
		vcd file lab8part4.msim.vcd -direction
$end
$date
	Fri Nov 08 00:40:04 2019
$end
$version
	ModelSim Version 10.5b
$end
$timescale
	1ps
$end

$scope module lab8part4_vhd_vec_tst $end
$var wire 1 ! CLK $end
$var wire 1 " D $end
$var wire 1 # Q $end

$scope module i1 $end
$var wire 1 $ gnd $end
$var wire 1 % vcc $end
$var wire 1 & unknown $end
$var wire 1 ' devoe $end
$var wire 1 ( devclrn $end
$var wire 1 ) devpor $end
$var wire 1 * ww_devoe $end
$var wire 1 + ww_devclrn $end
$var wire 1 , ww_devpor $end
$var wire 1 - ww_D $end
$var wire 1 . ww_CLK $end
$var wire 1 / ww_Q $end
$var wire 1 0 \~QUARTUS_CREATED_ADC1~_CHSEL_bus\ [4] $end
$var wire 1 1 \~QUARTUS_CREATED_ADC1~_CHSEL_bus\ [3] $end
$var wire 1 2 \~QUARTUS_CREATED_ADC1~_CHSEL_bus\ [2] $end
$var wire 1 3 \~QUARTUS_CREATED_ADC1~_CHSEL_bus\ [1] $end
$var wire 1 4 \~QUARTUS_CREATED_ADC1~_CHSEL_bus\ [0] $end
$var wire 1 5 \~QUARTUS_CREATED_ADC2~_CHSEL_bus\ [4] $end
$var wire 1 6 \~QUARTUS_CREATED_ADC2~_CHSEL_bus\ [3] $end
$var wire 1 7 \~QUARTUS_CREATED_ADC2~_CHSEL_bus\ [2] $end
$var wire 1 8 \~QUARTUS_CREATED_ADC2~_CHSEL_bus\ [1] $end
$var wire 1 9 \~QUARTUS_CREATED_ADC2~_CHSEL_bus\ [0] $end
$var wire 1 : \~QUARTUS_CREATED_GND~I_combout\ $end
$var wire 1 ; \~QUARTUS_CREATED_UNVM~~busy\ $end
$var wire 1 < \~QUARTUS_CREATED_ADC1~~eoc\ $end
$var wire 1 = \~QUARTUS_CREATED_ADC2~~eoc\ $end
$var wire 1 > \Q~output_o\ $end
$var wire 1 ? \D~input_o\ $end
$var wire 1 @ \CLK~input_o\ $end
$var wire 1 A \Q$latch~combout\ $end
$upscope $end
$upscope $end
$enddefinitions $end
#0
$dumpvars
1!
0"
0#
0$
1%
x&
1'
1(
1)
1*
1+
1,
0-
1.
0/
0:
z;
z<
z=
0>
0?
1@
0A
00
01
02
03
04
05
06
07
08
09
$end
#20000
0!
0.
0@
#130000
1"
1-
1?
#190000
1!
1.
1@
1A
1>
1/
1#
#240000
0"
0-
0?
0A
0>
0/
0#
#310000
1"
1-
1?
1A
1>
1/
1#
#340000
0"
0-
0?
0A
0>
0/
0#
#400000
0!
0.
0@
#420000
1"
1-
1?
#480000
0"
0-
0?
#540000
1"
1-
1?
#560000
0"
0-
0?
#610000
1!
1.
1@
#650000
1"
1-
1?
1A
1>
1/
1#
#670000
0"
0-
0?
0A
0>
0/
0#
#740000
1"
1-
1?
1A
1>
1/
1#
#800000
0!
0.
0@
#860000
0"
0-
0?
